{
    "m_SelectedDeviceId": "",
    "m_SelectedPackage": {
        "deviceId": "",
        "name": "",
        "processId": 0,
        "exited": false
    },
    "m_SelectedPriority": 0,
    "m_KnownPackagesForSerialization": [],
    "m_Tags": {
        "m_Entries": [
            {
                "m_Name": "Filter by all listed tags",
                "m_Selected": false
            },
            {
                "m_Name": "No Filter",
                "m_Selected": true
            },
            {
                "m_Name": "",
                "m_Selected": false
            },
            {
                "m_Name": "Tag Control...",
                "m_Selected": false
            },
            {
                "m_Name": "",
                "m_Selected": false
            },
            {
                "m_Name": "Unity",
                "m_Selected": false
            },
            {
                "m_Name": "CRASH",
                "m_Selected": false
            }
        ]
    },
    "m_MemoryViewerState": {
        "MemoryWindowHeight": 0.0,
        "MemoryWindowWidth": 0.0,
        "MemoryTypeEnabled": [],
        "MemoryGroup": 2,
        "Behavior": 0
    },
    "m_FilterOptions": {
        "m_Filter": "",
        "m_UseRegularExpressions": false,
        "m_MatchCase": false
    },
    "m_SymbolPaths": [
        {
            "Name": "C:\\Program Files\\Unity\\Hub\\Editor\\2022.3.11f1\\Editor\\Data\\PlaybackEngines\\AndroidPlayer\\Variations\\mono\\Development\\Symbols\\armeabi-v7a",
            "Enabled": true
        }
    ],
    "m_CaptureVideoSettings": {
        "TimeLimitEnabled": false,
        "TimeLimit": 180,
        "VideoSizeEnabled": false,
        "VideoSizeX": 1280,
        "VideoSizeY": 720,
        "BitRateEnabled": false,
        "BitRateK": 20000,
        "DisplayIdEnabled": false,
        "DisplayId": ""
    }
}